{ "frames": {
   "2 0.ase": {
    "frame": { "x": 0, "y": 0, "w": 32, "h": 32 },
    "rotated": false,
    "trimmed": false,
    "spriteSourceSize": { "x": 0, "y": 0, "w": 32, "h": 32 },
    "sourceSize": { "w": 32, "h": 32 },
    "duration": 500
   },
   "2 1.ase": {
    "frame": { "x": 32, "y": 0, "w": 32, "h": 32 },
    "rotated": false,
    "trimmed": false,
    "spriteSourceSize": { "x": 0, "y": 0, "w": 32, "h": 32 },
    "sourceSize": { "w": 32, "h": 32 },
    "duration": 500
   }
 },
 "meta": {
  "app": "http://www.aseprite.org/",
  "version": "1.1.12-dev",
  "image": "/home/michael/fivehearts/levels/01_NightClub/dancer-2.png",
  "format": "RGBA8888",
  "size": { "w": 64, "h": 32 },
  "scale": "1",
  "frameTags": [
  ]
 }
}
